// Jest Snapshot v1, https://goo.gl/fbAQLP

exports[`renders Home scene correctly 1`] = `
<div
  className="Home"
>
  <div
    className="Home-header"
  >
    <h2>
      Welcome to Razzles
    </h2>
  </div>
  <p
    className="Home-intro"
  >
    To get started, edit 
    <code>
      src/App.tsx
    </code>
     or
     
    <code>
      src/scenes/Home.tsx
    </code>
     and save to reload.
  </p>
  <ul
    className="Home-resources"
  >
    <li>
      <a
        href="https://github.com/jaredpalmer/razzle"
      >
        Docs
      </a>
    </li>
    <li>
      <a
        href="https://github.com/jaredpalmer/razzle/issues"
      >
        Issues
      </a>
    </li>
    <li>
      <a
        href="https://palmer.chat"
      >
        Community Slack
      </a>
    </li>
  </ul>
</div>
`;
